{
  "todos": [
    { "id": 1, "order": 1, "completed": true, "description": "Lavar carro"},
    { "id": 2, "order": 2, "completed": false, "description": "Fazer compras"},
    { "id": 3, "order": 3, "completed": false, "description": "Marcar médico"}
  ]
}